CD_SUBPRODUCTO,NB_PLAN, PC_TASA,NU_PLAZO_MIN,NU_PLAZO_MAX,NB_SEGTO_FJIO,NB_SUBPRO,IM_MIN_PAQ,IM_MAX_PAQ,PC_CAT,FH_CAT,IM_CAPACIDAD_MIN,IM_CAPACIDAD_MAX,CD_PRIORI_SUB
59541,AUTO PREAPROBADO Privada SEMI,10.49,12,60,BANCA PRIVADA,USADO,100000,3500000,20.2,30/04/19,2147,75209,1
59542,AUTO PREAPROBADO Patrimonial Alto SEMI,11.49,12,60,BANCA PATRIMONIAL ALTO,USADO,100000,3500000,27.9,30/04/19,2197,76955,2
59514,AUTO PREAPROBADO UHN,9.49,12,60,BANCA PRIVADA UHN,NUEVO,100000,3500000,20.2,30/04/19,2098,73487,3
59517,AUTO PREAPROBADO Patrimonial Bajo,12.49,12,60,BANCA PATRIMONIAL BAJO,NUEVO,100000,3500000,24.4,30/04/19,2247,78723,4
59515,AUTO PREAPROBADO Privada,10.49,12,60,BANCA PRIVADA,NUEVO,100000,3500000,20.2,30/04/19,2147,75209,5
59516,AUTO PREAPROBADO Patrimonial Alto,11.49,12,60,BANCA PATRIMONIAL ALTO,NUEVO,100000,3500000,23.7,30/04/19,2197,76955,6
59518,AUTO PREAPROBADO PER,13.99,12,60,BANCA PERSONAL,NUEVO,30000,1000000,29.8,30/04/19,696,23261,7
59531,AUTO PREAPROBADO PER,13.99,12,60,BANCA PERSONAL PLUS,NUEVO,30000,1000000,29.7,30/04/19,696,23261,8
59519,AUTO PREAPROBADO BANC,14.99,12,60,BANCARIO ALTO,NUEVO,30000,1000000,30.3,30/04/19,712,23783,9
59532,AUTO PREAPROBADO BANC,14.99,12,60,BANCARIO BAJO,NUEVO,30000,1000000,29.5,30/04/19,712,23783,10
59521,AUTO PREAPROBADO BANC,14.99,12,60,BANCARIO ESTANDAR,NUEVO,30000,1000000,30.3,30/04/19,712,23783,11
59536,AUTO PREAPROBADO BANC,14.99,12,60,MONO FINANZIA,NUEVO,30000,1000000,30.3,30/04/19,712,23783,12
59534,AUTO PREAPROBADO BANC,14.99,12,60,BANCA EXPRESS,NUEVO,30000,1000000,28.6,30/04/19,712,23783,13
59526,AUTO PREAPROB SEMI,14.99,12,60,BANCA PERSONAL,USADO,30000,1000000,32.1,30/04/19,712,23783,14
59527,AUTO PREAPROB SEMI,14.99,12,60,BANCA PERSONAL PLUS,USADO,30000,1000000,32.1,30/04/19,712,23783,15
59524,AUTO PREAPROB SEMI,14.99,12,60,BANCARIO ALTO,USADO,30000,1000000,35.2,30/04/19,712,23783,16
59528,AUTO PREAPROB SEMI,14.99,12,60,BANCARIO BAJO,USADO,30000,1000000,33.5,30/04/19,712,23783,17
59537,AUTO PREAPROB SEMI,14.99,12,60,BANCARIO ESTANDAR,USADO,30000,1000000,35.6,30/04/19,712,23783,18
59539,AUTO PREAPROBADO UHN SEMI,9.49,12,60,BANCA PRIVADA UHN,USADO,100000,3500000,20.2,30/04/19,2098,73487,19
59540,AUTO PREAPROBADO Patrimonial Bajo SEMI,12.49,12,60,BANCA PATRIMONIAL BAJO,USADO,100000,3500000,27.9,30/04/19,2247,78723,20
59538,AUTO PREAPROB SEMI,14.99,12,60,MONO FINANZIA,USADO,30000,1000000,35.6,30/04/19,712,23783,21
59529,AUTO PREAPROB SEMI,14.99,12,60,BANCA EXPRESS,USADO,30000,1000000,36,30/04/19,712,23783,22
